{
      "nodes": [
              {"index":0, "label": "Bienvenue dans la Carto PAIR !", "@type":"av:project", "x":300, "y":50, "@id":"http://fluidlog.com/node/0", "neighbours":[] },
              {"index":1, "label": "Vous pouvez ajouter...", "@type":"av:idea", "x":150, "y":150, "@id":"http://fluidlog.com/node/1", "neighbours":[] },
              {"index":2, "label": "Des Projets", "@type":"av:project", "x":300, "y":200, "@id":"http://fluidlog.com/node/2", "neighbours":[] },
              {"index":3, "label": "Des Acteurs", "@type":"av:actor", "x":400, "y":200, "@id":"http://fluidlog.com/node/3", "neighbours":[] },
              {"index":4, "label": "Des Idées", "@type":"av:idea", "x":500, "y":200, "@id":"http://fluidlog.com/node/4", "neighbours":[] },
              {"index":5, "label": "Des Ressources", "@type":"av:ressource", "x":600, "y":200, "@id":"http://fluidlog.com/node/5", "neighbours":[] },
              {"index":6, "label": "Faire des liens entre les noeuds", "@type":"av:idea", "x":300, "y":300, "@id":"http://fluidlog.com/node/6", "neighbours":[] },
              {"index":7, "label": "Pour cartographier un réseau PAIR à PAIR !", "@type":"av:project", "x":600, "y":300, "@id":"http://fluidlog.com/node/7", "neighbours":[] },
              {"index":8, "label": "Pour plus d'infos, lisez l'aide (menu en haut à droite) !", "@type":"av:ressource", "x":500, "y":400, "@id":"http://fluidlog.com/node/8", "neighbours":[] }
      ],
      "edges": [
              { "source": 0, "target": 1 },
              { "source": 1, "target": 2 },
              { "source": 2, "target": 3 },
              { "source": 3, "target": 4 },
              { "source": 4, "target": 5 },
              { "source": 4, "target": 6 },
              { "source": 4, "target": 7 },
              { "source": 4, "target": 8 },
              { "source": 7, "target": 8 }
      ]
}
