{
  "config" : {
    "dataUri" : "https://data.flod.io/sparql",
    "domainSemappsUri" : "https://semapps.flodio.assemblee-virtuelle.org",
    "backupDataUri" : "",
    "logoName" : "logo-flodio.png",
    "logoType" : "tiny",
    "menuColor" : "#cf5959",
    "sidebarButtonColor" : "#cf5959",
    "displayStatistics" : false,
    "version" : "cartosemapps-flodio",
    "modeRequest" : "sparql",
    "typeServer" : "triplestore-graph",
    "autoLoad" : true,
    "autoDisplay" : true,
    "keepMenuOpen" : false,
    "displayNodesAlone" : "nodesEdgesOnly",
    "displayFilterEdge" : false,
    "colorizeFilterNode" : true,
    "displayFlodPanel" : true,
    "displaySemappsLink" : true,
    "firstLabelFlodPanel" : "Bienvenue sur la cartographie sémantique **FLODIO** ! Cliquez sur un noeud pour afficher le FLOD !",
    "useMdForDescriptionFlodPanel" : true,
    "force" : {
      "enabled" : true,
      "center" : {
        "x": 0.5,
        "y": 0.5
      },
      "charge" : {
          "enabled" : true,
          "theta" : 0.9,
          "strength" : -1500,
          "distanceMin" : 1,
          "distanceMax" : 2000
      },
      "collide" : {
          "enabled" : true,
          "strength" : 1,
          "iterations" : 0.7,
          "radius" : 40
      },
      "forceX" : {
          "enabled" : true,
          "strength" : 0.1,
          "x" : 0.5
      },
      "forceY" : {
          "enabled" : true,
          "strength" : 0.1,
          "y": 0.5
      },
      "link" : {
          "enabled" : true,
          "distance" : 50,
          "strength" : 0.1,
          "iterations" : 2
      },
      "chargeStrengthSlider" : false,
      "collideStrengthSlider" : false,
      "linkDistanceSlider" : false,
      "linkStrengthSlider" : false,
      "alphaTarget" : 0.3
    },
    "activeElasticity" : false,
    "activeElasticityOnDragNode" : false,
    "curvesEdges" : true,
    "curvesEdgesType" : "diagonal",
    "statisticsColor" : {
      "pair:person" : "yellow",
      "pair:organization" : "orange",
      "pair:project" : "red",
      "pair:theme" : "vert",
      "pair:skill" : "blue",
      "pair:event" : "violet"
    },
    "filterTypeNodeOption" : {
      "pair:person" : true,
      "pair:organization" : true,
      "pair:project" : true,
      "pair:theme" : true,
      "pair:skill" : true,
      "pair:event" : true
    },
    "filterTypeNodeDisplay" : {
      "pair:person" : true,
      "pair:organization" : true,
      "pair:project" : true,
      "pair:theme" : true,
      "pair:skill" : true,
      "pair:event" : true
    },
    "filterTypeEdgeOption" : {
      "pair:involves" : true,
      "pair:offeredBy" : true,
      "pair:affiliatedBy" : true,
      "pair:offers" : true,
      "pair:involvedIn" : true,
      "pair:affiliates" : true,
      "pair:partnerOf" : true,
      "pair:hasTopic" : true,
      "pair:topicOf" : true
    },
    "pairLabel" : {
      "pair:person" : "Person",
      "pair:organization" : "Orga",
      "pair:project" : "Project",
      "pair:theme" : "Theme",
      "pair:skill" : "Skill",
      "pair:event" : "Event",
      "pair:involves" : "Involves",
      "pair:offeredBy" : "Offered by",
      "pair:affiliatedBy": "Affiliated by",
      "pair:offers" : "Offers",
      "pair:involvedIn" : "Involved in",
      "pair:affiliates" : "Affiliates",
      "pair:partnerOf" : "Partner Of",
      "pair:hasTopic" : "Has topic",
      "pair:topicOf" : "Topic Of"
    }
  },
  "customNodes" : {
    "listType" : ["pair:person",
                  "pair:organization",
                  "pair:project",
                  "pair:skill",
                  "pair:theme",
                  "pair:event"
                  ],
    "colorType" : { "pair:person" : "#FBC00E",
                    "pair:organization" : "#f4873e",
                    "pair:project" : "#E15151",
                    "pair:skill" : "#2b91de",
                    "pair:theme" : "#40dd65",
                    "pair:event" : "#b04dd1"
                  },
    "colorTypeName" : {"pair:person" : "yellow",
                    "pair:organization" : "orange",
                    "pair:project" : "red",
                    "pair:skill" : "blue",
                    "pair:theme" : "green",
                    "pair:event" : "purple"
                  },
    "colorTypeRgba" : {"pair:person" : "251,192,14",
                      "pair:organization" : "244,135,62",
                      "pair:project" : "225,81,81",
                      "pair:skill" : "43,145,222",
                      "pair:theme" : "64,221,101",
                      "pair:event" : "176,77,209"
                      },
    "neighbourColorType" : {"pair:person" : "#fcd04a",
                            "pair:organization" : "#f9c39f",
                            "pair:project" : "#ed9696",
                            "pair:skill" : "#95c8ee",
                            "pair:theme" : "#97edab",
                            "pair:event" : "#dbaeea"
                          },
    "neighbourColorTypeRgba" : {"pair:person" : "251,192,14",
                                "pair:organization" : "244,135,62",
                                "pair:project" : "225,81,81",
                                "pair:skill" : "43,145,222",
                                "pair:theme" : "64,221,101",
                                "pair:event" : "176,77,209"
                              },
    "imageType" : {"pair:person" : "yellow user",
                    "pair:organization" : "orange help",
                    "pair:project" : "red cube",
                    "pair:skill" : "blue unhide",
                    "pair:theme" : "green lab",
                    "pair:event" : "violet wait"
                  },
    "maxCharactersInLabel" : 33,
    "indiceProportionalRadius" : 0.5
  }
}
